<?xml version="1.0" encoding="UTF-8" standalone="no"?>
<!-- Created with Inkscape (http://www.inkscape.org/) -->

<svg
   xmlns:dc="http://purl.org/dc/elements/1.1/"
   xmlns:cc="http://creativecommons.org/ns#"
   xmlns:rdf="http://www.w3.org/1999/02/22-rdf-syntax-ns#"
   xmlns:svg="http://www.w3.org/2000/svg"
   xmlns="http://www.w3.org/2000/svg"
   xmlns:sodipodi="http://sodipodi.sourceforge.net/DTD/sodipodi-0.dtd"
   xmlns:inkscape="http://www.inkscape.org/namespaces/inkscape"
   width="21.254557mm"
   height="20.908733mm"
   viewBox="0 0 21.254557 20.908733"
   version="1.1"
   id="svg4687"
   inkscape:version="0.92.2 (5c3e80d, 2017-08-06)"
   sodipodi:docname="talo2_kelt.svg">
  <defs
     id="defs4681" />
  <sodipodi:namedview
     id="base"
     pagecolor="#ffffff"
     bordercolor="#666666"
     borderopacity="1.0"
     inkscape:pageopacity="0.0"
     inkscape:pageshadow="2"
     inkscape:zoom="1.979899"
     inkscape:cx="78.060575"
     inkscape:cy="50.500561"
     inkscape:document-units="mm"
     inkscape:current-layer="layer1"
     showgrid="false"
     inkscape:pagecheckerboard="true"
     showborder="false"
     inkscape:window-width="1920"
     inkscape:window-height="1018"
     inkscape:window-x="-8"
     inkscape:window-y="-8"
     inkscape:window-maximized="1" />
  <metadata
     id="metadata4684">
    <rdf:RDF>
      <cc:Work
         rdf:about="">
        <dc:format>image/svg+xml</dc:format>
        <dc:type
           rdf:resource="http://purl.org/dc/dcmitype/StillImage" />
        <dc:title></dc:title>
      </cc:Work>
    </rdf:RDF>
  </metadata>
  <g
     inkscape:label="Taso 1"
     inkscape:groupmode="layer"
     id="layer1"
     transform="translate(-49.848914,-50.688491)">
    <g
       id="g5247">
      <g
         id="g5242">
        <path
           style="fill:#b7903c;fill-opacity:1;fill-rule:evenodd;stroke-width:0.23864275"
           d="m 52.452421,60.279053 c -1.43226,0 -2.58528,0.089 -2.58528,0.19947 v 10.919231 c 0,0.11045 1.15302,0.19947 2.58528,0.19947 h 5.72467 v -6.14226 h 4.21242 v 6.14226 h 6.12869 c 1.43225,0 2.58527,-0.089 2.58527,-0.19947 V 60.478523 c 0,-0.11045 -1.15302,-0.19947 -2.58527,-0.19947 z"
           id="rect831-0-8"
           inkscape:connector-curvature="0" />
        <path
           sodipodi:type="star"
           style="fill:#b7903c;fill-opacity:1;fill-rule:evenodd;stroke-width:0.26458332"
           id="path836-3-5"
           sodipodi:sides="3"
           sodipodi:cx="75.793114"
           sodipodi:cy="72.53273"
           sodipodi:r1="15.897485"
           sodipodi:r2="7.9487424"
           sodipodi:arg1="2.6460408"
           sodipodi:arg2="3.6932383"
           inkscape:flatsided="true"
           inkscape:rounded="0"
           inkscape:randomized="0"
           d="M 61.807994,80.092257 76.238931,56.641498 89.332416,80.864435 Z"
           inkscape:transform-center-x="0.0039870549"
           inkscape:transform-center-y="-1.645917"
           transform="matrix(0.77160763,-0.01135742,0.02114516,0.41444368,0.46383095,28.079658)" />
      </g>
    </g>
  </g>
</svg>
