-- Merging decision tree log ---
manifest
ADDED from C:\Users\BurmaWIN\Desktop\agilegit\tiko_agile17_r2\HelloWebApp\app\src\main\AndroidManifest.xml:2:1-28:12
INJECTED from C:\Users\BurmaWIN\Desktop\agilegit\tiko_agile17_r2\HelloWebApp\app\src\main\AndroidManifest.xml:2:1-28:12
INJECTED from C:\Users\BurmaWIN\Desktop\agilegit\tiko_agile17_r2\HelloWebApp\app\src\main\AndroidManifest.xml:2:1-28:12
INJECTED from C:\Users\BurmaWIN\Desktop\agilegit\tiko_agile17_r2\HelloWebApp\app\src\main\AndroidManifest.xml:2:1-28:12
MERGED from [com.android.support:appcompat-v7:26.1.0] C:\Users\BurmaWIN\.gradle\caches\transforms-1\files-1.1\appcompat-v7-26.1.0.aar\0311d57b9ad7f1a60caa230e30980508\AndroidManifest.xml:17:1-31:12
MERGED from [com.android.support:animated-vector-drawable:26.1.0] C:\Users\BurmaWIN\.gradle\caches\transforms-1\files-1.1\animated-vector-drawable-26.1.0.aar\e4c043ddbf00f5c707827d7f25fac74d\AndroidManifest.xml:17:1-28:12
MERGED from [com.android.support:support-vector-drawable:26.1.0] C:\Users\BurmaWIN\.gradle\caches\transforms-1\files-1.1\support-vector-drawable-26.1.0.aar\dcdf7d4d5bc8cf866a2dcd4db1e0f758\AndroidManifest.xml:17:1-28:12
MERGED from [com.android.support:support-v4:26.1.0] C:\Users\BurmaWIN\.gradle\caches\transforms-1\files-1.1\support-v4-26.1.0.aar\fb4e079a5953181c839da39a76ac0185\AndroidManifest.xml:17:1-31:12
MERGED from [com.android.support:support-media-compat:26.1.0] C:\Users\BurmaWIN\.gradle\caches\transforms-1\files-1.1\support-media-compat-26.1.0.aar\6cd016489558904f3c98f6bbb7e3b7c3\AndroidManifest.xml:17:1-31:12
MERGED from [com.android.support:support-fragment:26.1.0] C:\Users\BurmaWIN\.gradle\caches\transforms-1\files-1.1\support-fragment-26.1.0.aar\5890fd32c3bef30d4513f45ce9f8d20d\AndroidManifest.xml:17:1-31:12
MERGED from [com.android.support:support-core-utils:26.1.0] C:\Users\BurmaWIN\.gradle\caches\transforms-1\files-1.1\support-core-utils-26.1.0.aar\9e964436ff81bc845c2966e0554ed6c6\AndroidManifest.xml:17:1-31:12
MERGED from [com.android.support:support-core-ui:26.1.0] C:\Users\BurmaWIN\.gradle\caches\transforms-1\files-1.1\support-core-ui-26.1.0.aar\b8bdaee7d8dab1ac74eeb7a2e4f8acd0\AndroidManifest.xml:17:1-31:12
MERGED from [com.android.support:support-compat:26.1.0] C:\Users\BurmaWIN\.gradle\caches\transforms-1\files-1.1\support-compat-26.1.0.aar\88e61b63967f41fd8e38885ed788545f\AndroidManifest.xml:17:1-31:12
MERGED from [com.android.support.constraint:constraint-layout:1.0.2] C:\Users\BurmaWIN\.gradle\caches\transforms-1\files-1.1\constraint-layout-1.0.2.aar\67c9a017eef4051bae69f24280e21ff3\AndroidManifest.xml:2:1-11:12
MERGED from [android.arch.lifecycle:runtime:1.0.0] C:\Users\BurmaWIN\.gradle\caches\transforms-1\files-1.1\runtime-1.0.0.aar\5e2e198770b90f8ab4983ec6a21a52a7\AndroidManifest.xml:17:1-30:12
INJECTED from C:\Users\BurmaWIN\Desktop\agilegit\tiko_agile17_r2\HelloWebApp\app\src\main\AndroidManifest.xml:2:1-28:12
INJECTED from C:\Users\BurmaWIN\Desktop\agilegit\tiko_agile17_r2\HelloWebApp\app\src\main\AndroidManifest.xml:2:1-28:12
INJECTED from C:\Users\BurmaWIN\Desktop\agilegit\tiko_agile17_r2\HelloWebApp\app\src\main\AndroidManifest.xml:2:1-28:12
	package
		ADDED from C:\Users\BurmaWIN\Desktop\agilegit\tiko_agile17_r2\HelloWebApp\app\src\main\AndroidManifest.xml:3:5-38
		INJECTED from C:\Users\BurmaWIN\Desktop\agilegit\tiko_agile17_r2\HelloWebApp\app\src\main\AndroidManifest.xml
		INJECTED from C:\Users\BurmaWIN\Desktop\agilegit\tiko_agile17_r2\HelloWebApp\app\src\main\AndroidManifest.xml
	android:versionName
		INJECTED from C:\Users\BurmaWIN\Desktop\agilegit\tiko_agile17_r2\HelloWebApp\app\src\main\AndroidManifest.xml
		ADDED from C:\Users\BurmaWIN\Desktop\agilegit\tiko_agile17_r2\HelloWebApp\app\src\main\AndroidManifest.xml:2:1-28:12
		INJECTED from C:\Users\BurmaWIN\Desktop\agilegit\tiko_agile17_r2\HelloWebApp\app\src\main\AndroidManifest.xml
	android:versionCode
		INJECTED from C:\Users\BurmaWIN\Desktop\agilegit\tiko_agile17_r2\HelloWebApp\app\src\main\AndroidManifest.xml
		ADDED from C:\Users\BurmaWIN\Desktop\agilegit\tiko_agile17_r2\HelloWebApp\app\src\main\AndroidManifest.xml:2:1-28:12
		INJECTED from C:\Users\BurmaWIN\Desktop\agilegit\tiko_agile17_r2\HelloWebApp\app\src\main\AndroidManifest.xml
	xmlns:android
		ADDED from C:\Users\BurmaWIN\Desktop\agilegit\tiko_agile17_r2\HelloWebApp\app\src\main\AndroidManifest.xml:2:11-69
uses-permission#android.permission.INTERNET
ADDED from C:\Users\BurmaWIN\Desktop\agilegit\tiko_agile17_r2\HelloWebApp\app\src\main\AndroidManifest.xml:5:5-66
	android:name
		ADDED from C:\Users\BurmaWIN\Desktop\agilegit\tiko_agile17_r2\HelloWebApp\app\src\main\AndroidManifest.xml:5:22-64
uses-permission#android.permission.CAMERA
ADDED from C:\Users\BurmaWIN\Desktop\agilegit\tiko_agile17_r2\HelloWebApp\app\src\main\AndroidManifest.xml:6:5-64
	android:name
		ADDED from C:\Users\BurmaWIN\Desktop\agilegit\tiko_agile17_r2\HelloWebApp\app\src\main\AndroidManifest.xml:6:22-62
uses-permission#android.permission.ACCESS_NETWORK_STATE
ADDED from C:\Users\BurmaWIN\Desktop\agilegit\tiko_agile17_r2\HelloWebApp\app\src\main\AndroidManifest.xml:7:5-78
	android:name
		ADDED from C:\Users\BurmaWIN\Desktop\agilegit\tiko_agile17_r2\HelloWebApp\app\src\main\AndroidManifest.xml:7:22-76
uses-permission#android.permission.READ_EXTERNAL_STORAGE
ADDED from C:\Users\BurmaWIN\Desktop\agilegit\tiko_agile17_r2\HelloWebApp\app\src\main\AndroidManifest.xml:8:5-80
	android:name
		ADDED from C:\Users\BurmaWIN\Desktop\agilegit\tiko_agile17_r2\HelloWebApp\app\src\main\AndroidManifest.xml:8:22-77
uses-permission#android.permission.WRITE_EXTERNAL_STORAGE
ADDED from C:\Users\BurmaWIN\Desktop\agilegit\tiko_agile17_r2\HelloWebApp\app\src\main\AndroidManifest.xml:9:5-81
	android:name
		ADDED from C:\Users\BurmaWIN\Desktop\agilegit\tiko_agile17_r2\HelloWebApp\app\src\main\AndroidManifest.xml:9:22-78
uses-permission#android.permission.ACCESS_WIFI_STATE
ADDED from C:\Users\BurmaWIN\Desktop\agilegit\tiko_agile17_r2\HelloWebApp\app\src\main\AndroidManifest.xml:10:5-75
	android:name
		ADDED from C:\Users\BurmaWIN\Desktop\agilegit\tiko_agile17_r2\HelloWebApp\app\src\main\AndroidManifest.xml:10:22-73
application
ADDED from C:\Users\BurmaWIN\Desktop\agilegit\tiko_agile17_r2\HelloWebApp\app\src\main\AndroidManifest.xml:12:5-26:19
MERGED from [com.android.support:appcompat-v7:26.1.0] C:\Users\BurmaWIN\.gradle\caches\transforms-1\files-1.1\appcompat-v7-26.1.0.aar\0311d57b9ad7f1a60caa230e30980508\AndroidManifest.xml:25:5-29:19
MERGED from [com.android.support:appcompat-v7:26.1.0] C:\Users\BurmaWIN\.gradle\caches\transforms-1\files-1.1\appcompat-v7-26.1.0.aar\0311d57b9ad7f1a60caa230e30980508\AndroidManifest.xml:25:5-29:19
MERGED from [com.android.support:animated-vector-drawable:26.1.0] C:\Users\BurmaWIN\.gradle\caches\transforms-1\files-1.1\animated-vector-drawable-26.1.0.aar\e4c043ddbf00f5c707827d7f25fac74d\AndroidManifest.xml:22:5-26:19
MERGED from [com.android.support:animated-vector-drawable:26.1.0] C:\Users\BurmaWIN\.gradle\caches\transforms-1\files-1.1\animated-vector-drawable-26.1.0.aar\e4c043ddbf00f5c707827d7f25fac74d\AndroidManifest.xml:22:5-26:19
MERGED from [com.android.support:support-vector-drawable:26.1.0] C:\Users\BurmaWIN\.gradle\caches\transforms-1\files-1.1\support-vector-drawable-26.1.0.aar\dcdf7d4d5bc8cf866a2dcd4db1e0f758\AndroidManifest.xml:22:5-26:19
MERGED from [com.android.support:support-vector-drawable:26.1.0] C:\Users\BurmaWIN\.gradle\caches\transforms-1\files-1.1\support-vector-drawable-26.1.0.aar\dcdf7d4d5bc8cf866a2dcd4db1e0f758\AndroidManifest.xml:22:5-26:19
MERGED from [com.android.support:support-v4:26.1.0] C:\Users\BurmaWIN\.gradle\caches\transforms-1\files-1.1\support-v4-26.1.0.aar\fb4e079a5953181c839da39a76ac0185\AndroidManifest.xml:25:5-29:19
MERGED from [com.android.support:support-v4:26.1.0] C:\Users\BurmaWIN\.gradle\caches\transforms-1\files-1.1\support-v4-26.1.0.aar\fb4e079a5953181c839da39a76ac0185\AndroidManifest.xml:25:5-29:19
MERGED from [com.android.support:support-media-compat:26.1.0] C:\Users\BurmaWIN\.gradle\caches\transforms-1\files-1.1\support-media-compat-26.1.0.aar\6cd016489558904f3c98f6bbb7e3b7c3\AndroidManifest.xml:25:5-29:19
MERGED from [com.android.support:support-media-compat:26.1.0] C:\Users\BurmaWIN\.gradle\caches\transforms-1\files-1.1\support-media-compat-26.1.0.aar\6cd016489558904f3c98f6bbb7e3b7c3\AndroidManifest.xml:25:5-29:19
MERGED from [com.android.support:support-fragment:26.1.0] C:\Users\BurmaWIN\.gradle\caches\transforms-1\files-1.1\support-fragment-26.1.0.aar\5890fd32c3bef30d4513f45ce9f8d20d\AndroidManifest.xml:25:5-29:19
MERGED from [com.android.support:support-fragment:26.1.0] C:\Users\BurmaWIN\.gradle\caches\transforms-1\files-1.1\support-fragment-26.1.0.aar\5890fd32c3bef30d4513f45ce9f8d20d\AndroidManifest.xml:25:5-29:19
MERGED from [com.android.support:support-core-utils:26.1.0] C:\Users\BurmaWIN\.gradle\caches\transforms-1\files-1.1\support-core-utils-26.1.0.aar\9e964436ff81bc845c2966e0554ed6c6\AndroidManifest.xml:25:5-29:19
MERGED from [com.android.support:support-core-utils:26.1.0] C:\Users\BurmaWIN\.gradle\caches\transforms-1\files-1.1\support-core-utils-26.1.0.aar\9e964436ff81bc845c2966e0554ed6c6\AndroidManifest.xml:25:5-29:19
MERGED from [com.android.support:support-core-ui:26.1.0] C:\Users\BurmaWIN\.gradle\caches\transforms-1\files-1.1\support-core-ui-26.1.0.aar\b8bdaee7d8dab1ac74eeb7a2e4f8acd0\AndroidManifest.xml:25:5-29:19
MERGED from [com.android.support:support-core-ui:26.1.0] C:\Users\BurmaWIN\.gradle\caches\transforms-1\files-1.1\support-core-ui-26.1.0.aar\b8bdaee7d8dab1ac74eeb7a2e4f8acd0\AndroidManifest.xml:25:5-29:19
MERGED from [com.android.support:support-compat:26.1.0] C:\Users\BurmaWIN\.gradle\caches\transforms-1\files-1.1\support-compat-26.1.0.aar\88e61b63967f41fd8e38885ed788545f\AndroidManifest.xml:25:5-29:19
MERGED from [com.android.support:support-compat:26.1.0] C:\Users\BurmaWIN\.gradle\caches\transforms-1\files-1.1\support-compat-26.1.0.aar\88e61b63967f41fd8e38885ed788545f\AndroidManifest.xml:25:5-29:19
MERGED from [com.android.support.constraint:constraint-layout:1.0.2] C:\Users\BurmaWIN\.gradle\caches\transforms-1\files-1.1\constraint-layout-1.0.2.aar\67c9a017eef4051bae69f24280e21ff3\AndroidManifest.xml:9:5-20
MERGED from [com.android.support.constraint:constraint-layout:1.0.2] C:\Users\BurmaWIN\.gradle\caches\transforms-1\files-1.1\constraint-layout-1.0.2.aar\67c9a017eef4051bae69f24280e21ff3\AndroidManifest.xml:9:5-20
MERGED from [android.arch.lifecycle:runtime:1.0.0] C:\Users\BurmaWIN\.gradle\caches\transforms-1\files-1.1\runtime-1.0.0.aar\5e2e198770b90f8ab4983ec6a21a52a7\AndroidManifest.xml:24:5-28:19
MERGED from [android.arch.lifecycle:runtime:1.0.0] C:\Users\BurmaWIN\.gradle\caches\transforms-1\files-1.1\runtime-1.0.0.aar\5e2e198770b90f8ab4983ec6a21a52a7\AndroidManifest.xml:24:5-28:19
	android:supportsRtl
		ADDED from C:\Users\BurmaWIN\Desktop\agilegit\tiko_agile17_r2\HelloWebApp\app\src\main\AndroidManifest.xml:17:9-35
	android:label
		ADDED from C:\Users\BurmaWIN\Desktop\agilegit\tiko_agile17_r2\HelloWebApp\app\src\main\AndroidManifest.xml:15:9-41
	android:roundIcon
		ADDED from C:\Users\BurmaWIN\Desktop\agilegit\tiko_agile17_r2\HelloWebApp\app\src\main\AndroidManifest.xml:16:9-49
	android:icon
		ADDED from C:\Users\BurmaWIN\Desktop\agilegit\tiko_agile17_r2\HelloWebApp\app\src\main\AndroidManifest.xml:14:9-38
	android:allowBackup
		ADDED from C:\Users\BurmaWIN\Desktop\agilegit\tiko_agile17_r2\HelloWebApp\app\src\main\AndroidManifest.xml:13:9-35
	android:theme
		ADDED from C:\Users\BurmaWIN\Desktop\agilegit\tiko_agile17_r2\HelloWebApp\app\src\main\AndroidManifest.xml:18:9-40
activity#fi.karelia.lassi.skoapp.MainActivity
ADDED from C:\Users\BurmaWIN\Desktop\agilegit\tiko_agile17_r2\HelloWebApp\app\src\main\AndroidManifest.xml:19:9-25:20
	android:name
		ADDED from C:\Users\BurmaWIN\Desktop\agilegit\tiko_agile17_r2\HelloWebApp\app\src\main\AndroidManifest.xml:19:19-70
intent-filter#android.intent.action.MAIN+android.intent.category.LAUNCHER
ADDED from C:\Users\BurmaWIN\Desktop\agilegit\tiko_agile17_r2\HelloWebApp\app\src\main\AndroidManifest.xml:20:13-24:29
action#android.intent.action.MAIN
ADDED from C:\Users\BurmaWIN\Desktop\agilegit\tiko_agile17_r2\HelloWebApp\app\src\main\AndroidManifest.xml:21:17-69
	android:name
		ADDED from C:\Users\BurmaWIN\Desktop\agilegit\tiko_agile17_r2\HelloWebApp\app\src\main\AndroidManifest.xml:21:25-66
category#android.intent.category.LAUNCHER
ADDED from C:\Users\BurmaWIN\Desktop\agilegit\tiko_agile17_r2\HelloWebApp\app\src\main\AndroidManifest.xml:23:17-77
	android:name
		ADDED from C:\Users\BurmaWIN\Desktop\agilegit\tiko_agile17_r2\HelloWebApp\app\src\main\AndroidManifest.xml:23:27-74
uses-sdk
INJECTED from C:\Users\BurmaWIN\Desktop\agilegit\tiko_agile17_r2\HelloWebApp\app\src\main\AndroidManifest.xml reason: use-sdk injection requested
INJECTED from C:\Users\BurmaWIN\Desktop\agilegit\tiko_agile17_r2\HelloWebApp\app\src\main\AndroidManifest.xml
INJECTED from C:\Users\BurmaWIN\Desktop\agilegit\tiko_agile17_r2\HelloWebApp\app\src\main\AndroidManifest.xml
MERGED from [com.android.support:appcompat-v7:26.1.0] C:\Users\BurmaWIN\.gradle\caches\transforms-1\files-1.1\appcompat-v7-26.1.0.aar\0311d57b9ad7f1a60caa230e30980508\AndroidManifest.xml:21:5-23:78
MERGED from [com.android.support:appcompat-v7:26.1.0] C:\Users\BurmaWIN\.gradle\caches\transforms-1\files-1.1\appcompat-v7-26.1.0.aar\0311d57b9ad7f1a60caa230e30980508\AndroidManifest.xml:21:5-23:78
MERGED from [com.android.support:animated-vector-drawable:26.1.0] C:\Users\BurmaWIN\.gradle\caches\transforms-1\files-1.1\animated-vector-drawable-26.1.0.aar\e4c043ddbf00f5c707827d7f25fac74d\AndroidManifest.xml:20:5-44
MERGED from [com.android.support:animated-vector-drawable:26.1.0] C:\Users\BurmaWIN\.gradle\caches\transforms-1\files-1.1\animated-vector-drawable-26.1.0.aar\e4c043ddbf00f5c707827d7f25fac74d\AndroidManifest.xml:20:5-44
MERGED from [com.android.support:support-vector-drawable:26.1.0] C:\Users\BurmaWIN\.gradle\caches\transforms-1\files-1.1\support-vector-drawable-26.1.0.aar\dcdf7d4d5bc8cf866a2dcd4db1e0f758\AndroidManifest.xml:20:5-44
MERGED from [com.android.support:support-vector-drawable:26.1.0] C:\Users\BurmaWIN\.gradle\caches\transforms-1\files-1.1\support-vector-drawable-26.1.0.aar\dcdf7d4d5bc8cf866a2dcd4db1e0f758\AndroidManifest.xml:20:5-44
MERGED from [com.android.support:support-v4:26.1.0] C:\Users\BurmaWIN\.gradle\caches\transforms-1\files-1.1\support-v4-26.1.0.aar\fb4e079a5953181c839da39a76ac0185\AndroidManifest.xml:21:5-23:54
MERGED from [com.android.support:support-v4:26.1.0] C:\Users\BurmaWIN\.gradle\caches\transforms-1\files-1.1\support-v4-26.1.0.aar\fb4e079a5953181c839da39a76ac0185\AndroidManifest.xml:21:5-23:54
MERGED from [com.android.support:support-media-compat:26.1.0] C:\Users\BurmaWIN\.gradle\caches\transforms-1\files-1.1\support-media-compat-26.1.0.aar\6cd016489558904f3c98f6bbb7e3b7c3\AndroidManifest.xml:21:5-23:63
MERGED from [com.android.support:support-media-compat:26.1.0] C:\Users\BurmaWIN\.gradle\caches\transforms-1\files-1.1\support-media-compat-26.1.0.aar\6cd016489558904f3c98f6bbb7e3b7c3\AndroidManifest.xml:21:5-23:63
MERGED from [com.android.support:support-fragment:26.1.0] C:\Users\BurmaWIN\.gradle\caches\transforms-1\files-1.1\support-fragment-26.1.0.aar\5890fd32c3bef30d4513f45ce9f8d20d\AndroidManifest.xml:21:5-23:60
MERGED from [com.android.support:support-fragment:26.1.0] C:\Users\BurmaWIN\.gradle\caches\transforms-1\files-1.1\support-fragment-26.1.0.aar\5890fd32c3bef30d4513f45ce9f8d20d\AndroidManifest.xml:21:5-23:60
MERGED from [com.android.support:support-core-utils:26.1.0] C:\Users\BurmaWIN\.gradle\caches\transforms-1\files-1.1\support-core-utils-26.1.0.aar\9e964436ff81bc845c2966e0554ed6c6\AndroidManifest.xml:21:5-23:61
MERGED from [com.android.support:support-core-utils:26.1.0] C:\Users\BurmaWIN\.gradle\caches\transforms-1\files-1.1\support-core-utils-26.1.0.aar\9e964436ff81bc845c2966e0554ed6c6\AndroidManifest.xml:21:5-23:61
MERGED from [com.android.support:support-core-ui:26.1.0] C:\Users\BurmaWIN\.gradle\caches\transforms-1\files-1.1\support-core-ui-26.1.0.aar\b8bdaee7d8dab1ac74eeb7a2e4f8acd0\AndroidManifest.xml:21:5-23:58
MERGED from [com.android.support:support-core-ui:26.1.0] C:\Users\BurmaWIN\.gradle\caches\transforms-1\files-1.1\support-core-ui-26.1.0.aar\b8bdaee7d8dab1ac74eeb7a2e4f8acd0\AndroidManifest.xml:21:5-23:58
MERGED from [com.android.support:support-compat:26.1.0] C:\Users\BurmaWIN\.gradle\caches\transforms-1\files-1.1\support-compat-26.1.0.aar\88e61b63967f41fd8e38885ed788545f\AndroidManifest.xml:21:5-23:58
MERGED from [com.android.support:support-compat:26.1.0] C:\Users\BurmaWIN\.gradle\caches\transforms-1\files-1.1\support-compat-26.1.0.aar\88e61b63967f41fd8e38885ed788545f\AndroidManifest.xml:21:5-23:58
MERGED from [com.android.support.constraint:constraint-layout:1.0.2] C:\Users\BurmaWIN\.gradle\caches\transforms-1\files-1.1\constraint-layout-1.0.2.aar\67c9a017eef4051bae69f24280e21ff3\AndroidManifest.xml:5:5-7:41
MERGED from [com.android.support.constraint:constraint-layout:1.0.2] C:\Users\BurmaWIN\.gradle\caches\transforms-1\files-1.1\constraint-layout-1.0.2.aar\67c9a017eef4051bae69f24280e21ff3\AndroidManifest.xml:5:5-7:41
MERGED from [android.arch.lifecycle:runtime:1.0.0] C:\Users\BurmaWIN\.gradle\caches\transforms-1\files-1.1\runtime-1.0.0.aar\5e2e198770b90f8ab4983ec6a21a52a7\AndroidManifest.xml:20:5-22:41
MERGED from [android.arch.lifecycle:runtime:1.0.0] C:\Users\BurmaWIN\.gradle\caches\transforms-1\files-1.1\runtime-1.0.0.aar\5e2e198770b90f8ab4983ec6a21a52a7\AndroidManifest.xml:20:5-22:41
INJECTED from C:\Users\BurmaWIN\Desktop\agilegit\tiko_agile17_r2\HelloWebApp\app\src\main\AndroidManifest.xml
INJECTED from C:\Users\BurmaWIN\Desktop\agilegit\tiko_agile17_r2\HelloWebApp\app\src\main\AndroidManifest.xml
	tools:overrideLibrary
		ADDED from [com.android.support:appcompat-v7:26.1.0] C:\Users\BurmaWIN\.gradle\caches\transforms-1\files-1.1\appcompat-v7-26.1.0.aar\0311d57b9ad7f1a60caa230e30980508\AndroidManifest.xml:23:9-75
	android:targetSdkVersion
		INJECTED from C:\Users\BurmaWIN\Desktop\agilegit\tiko_agile17_r2\HelloWebApp\app\src\main\AndroidManifest.xml
		ADDED from C:\Users\BurmaWIN\Desktop\agilegit\tiko_agile17_r2\HelloWebApp\app\src\main\AndroidManifest.xml
		INJECTED from C:\Users\BurmaWIN\Desktop\agilegit\tiko_agile17_r2\HelloWebApp\app\src\main\AndroidManifest.xml
	android:minSdkVersion
		INJECTED from C:\Users\BurmaWIN\Desktop\agilegit\tiko_agile17_r2\HelloWebApp\app\src\main\AndroidManifest.xml
		ADDED from C:\Users\BurmaWIN\Desktop\agilegit\tiko_agile17_r2\HelloWebApp\app\src\main\AndroidManifest.xml
		INJECTED from C:\Users\BurmaWIN\Desktop\agilegit\tiko_agile17_r2\HelloWebApp\app\src\main\AndroidManifest.xml
meta-data#android.support.VERSION
ADDED from [com.android.support:appcompat-v7:26.1.0] C:\Users\BurmaWIN\.gradle\caches\transforms-1\files-1.1\appcompat-v7-26.1.0.aar\0311d57b9ad7f1a60caa230e30980508\AndroidManifest.xml:26:9-28:38
MERGED from [com.android.support:animated-vector-drawable:26.1.0] C:\Users\BurmaWIN\.gradle\caches\transforms-1\files-1.1\animated-vector-drawable-26.1.0.aar\e4c043ddbf00f5c707827d7f25fac74d\AndroidManifest.xml:23:9-25:38
MERGED from [com.android.support:animated-vector-drawable:26.1.0] C:\Users\BurmaWIN\.gradle\caches\transforms-1\files-1.1\animated-vector-drawable-26.1.0.aar\e4c043ddbf00f5c707827d7f25fac74d\AndroidManifest.xml:23:9-25:38
MERGED from [com.android.support:support-vector-drawable:26.1.0] C:\Users\BurmaWIN\.gradle\caches\transforms-1\files-1.1\support-vector-drawable-26.1.0.aar\dcdf7d4d5bc8cf866a2dcd4db1e0f758\AndroidManifest.xml:23:9-25:38
MERGED from [com.android.support:support-vector-drawable:26.1.0] C:\Users\BurmaWIN\.gradle\caches\transforms-1\files-1.1\support-vector-drawable-26.1.0.aar\dcdf7d4d5bc8cf866a2dcd4db1e0f758\AndroidManifest.xml:23:9-25:38
MERGED from [com.android.support:support-v4:26.1.0] C:\Users\BurmaWIN\.gradle\caches\transforms-1\files-1.1\support-v4-26.1.0.aar\fb4e079a5953181c839da39a76ac0185\AndroidManifest.xml:26:9-28:38
MERGED from [com.android.support:support-v4:26.1.0] C:\Users\BurmaWIN\.gradle\caches\transforms-1\files-1.1\support-v4-26.1.0.aar\fb4e079a5953181c839da39a76ac0185\AndroidManifest.xml:26:9-28:38
MERGED from [com.android.support:support-media-compat:26.1.0] C:\Users\BurmaWIN\.gradle\caches\transforms-1\files-1.1\support-media-compat-26.1.0.aar\6cd016489558904f3c98f6bbb7e3b7c3\AndroidManifest.xml:26:9-28:38
MERGED from [com.android.support:support-media-compat:26.1.0] C:\Users\BurmaWIN\.gradle\caches\transforms-1\files-1.1\support-media-compat-26.1.0.aar\6cd016489558904f3c98f6bbb7e3b7c3\AndroidManifest.xml:26:9-28:38
MERGED from [com.android.support:support-fragment:26.1.0] C:\Users\BurmaWIN\.gradle\caches\transforms-1\files-1.1\support-fragment-26.1.0.aar\5890fd32c3bef30d4513f45ce9f8d20d\AndroidManifest.xml:26:9-28:38
MERGED from [com.android.support:support-fragment:26.1.0] C:\Users\BurmaWIN\.gradle\caches\transforms-1\files-1.1\support-fragment-26.1.0.aar\5890fd32c3bef30d4513f45ce9f8d20d\AndroidManifest.xml:26:9-28:38
MERGED from [com.android.support:support-core-utils:26.1.0] C:\Users\BurmaWIN\.gradle\caches\transforms-1\files-1.1\support-core-utils-26.1.0.aar\9e964436ff81bc845c2966e0554ed6c6\AndroidManifest.xml:26:9-28:38
MERGED from [com.android.support:support-core-utils:26.1.0] C:\Users\BurmaWIN\.gradle\caches\transforms-1\files-1.1\support-core-utils-26.1.0.aar\9e964436ff81bc845c2966e0554ed6c6\AndroidManifest.xml:26:9-28:38
MERGED from [com.android.support:support-core-ui:26.1.0] C:\Users\BurmaWIN\.gradle\caches\transforms-1\files-1.1\support-core-ui-26.1.0.aar\b8bdaee7d8dab1ac74eeb7a2e4f8acd0\AndroidManifest.xml:26:9-28:38
MERGED from [com.android.support:support-core-ui:26.1.0] C:\Users\BurmaWIN\.gradle\caches\transforms-1\files-1.1\support-core-ui-26.1.0.aar\b8bdaee7d8dab1ac74eeb7a2e4f8acd0\AndroidManifest.xml:26:9-28:38
MERGED from [com.android.support:support-compat:26.1.0] C:\Users\BurmaWIN\.gradle\caches\transforms-1\files-1.1\support-compat-26.1.0.aar\88e61b63967f41fd8e38885ed788545f\AndroidManifest.xml:26:9-28:38
MERGED from [com.android.support:support-compat:26.1.0] C:\Users\BurmaWIN\.gradle\caches\transforms-1\files-1.1\support-compat-26.1.0.aar\88e61b63967f41fd8e38885ed788545f\AndroidManifest.xml:26:9-28:38
	android:value
		ADDED from [com.android.support:appcompat-v7:26.1.0] C:\Users\BurmaWIN\.gradle\caches\transforms-1\files-1.1\appcompat-v7-26.1.0.aar\0311d57b9ad7f1a60caa230e30980508\AndroidManifest.xml:28:13-35
	android:name
		ADDED from [com.android.support:appcompat-v7:26.1.0] C:\Users\BurmaWIN\.gradle\caches\transforms-1\files-1.1\appcompat-v7-26.1.0.aar\0311d57b9ad7f1a60caa230e30980508\AndroidManifest.xml:27:13-51
meta-data#android.arch.lifecycle.VERSION
ADDED from [android.arch.lifecycle:runtime:1.0.0] C:\Users\BurmaWIN\.gradle\caches\transforms-1\files-1.1\runtime-1.0.0.aar\5e2e198770b90f8ab4983ec6a21a52a7\AndroidManifest.xml:25:9-27:47
	android:value
		ADDED from [android.arch.lifecycle:runtime:1.0.0] C:\Users\BurmaWIN\.gradle\caches\transforms-1\files-1.1\runtime-1.0.0.aar\5e2e198770b90f8ab4983ec6a21a52a7\AndroidManifest.xml:27:13-44
	android:name
		ADDED from [android.arch.lifecycle:runtime:1.0.0] C:\Users\BurmaWIN\.gradle\caches\transforms-1\files-1.1\runtime-1.0.0.aar\5e2e198770b90f8ab4983ec6a21a52a7\AndroidManifest.xml:26:13-58
