<?xml version="1.0" encoding="UTF-8" standalone="no"?>
<!-- Created with Inkscape (http://www.inkscape.org/) -->

<svg
   xmlns:dc="http://purl.org/dc/elements/1.1/"
   xmlns:cc="http://creativecommons.org/ns#"
   xmlns:rdf="http://www.w3.org/1999/02/22-rdf-syntax-ns#"
   xmlns:svg="http://www.w3.org/2000/svg"
   xmlns="http://www.w3.org/2000/svg"
   xmlns:sodipodi="http://sodipodi.sourceforge.net/DTD/sodipodi-0.dtd"
   xmlns:inkscape="http://www.inkscape.org/namespaces/inkscape"
   width="21.540001mm"
   height="21.059mm"
   viewBox="0 0 21.540001 21.059"
   version="1.1"
   id="svg2035"
   inkscape:version="0.92.2 (5c3e80d, 2017-08-06)"
   sodipodi:docname="infonappi.svg">
  <defs
     id="defs2029" />
  <sodipodi:namedview
     id="base"
     pagecolor="#ffffff"
     bordercolor="#666666"
     borderopacity="1.0"
     inkscape:pageopacity="0.0"
     inkscape:pageshadow="2"
     inkscape:zoom="1.979899"
     inkscape:cx="16.787745"
     inkscape:cy="32.201251"
     inkscape:document-units="mm"
     inkscape:current-layer="g8470"
     showgrid="false"
     inkscape:pagecheckerboard="true"
     showborder="false"
     inkscape:window-width="1920"
     inkscape:window-height="1018"
     inkscape:window-x="-8"
     inkscape:window-y="-8"
     inkscape:window-maximized="1" />
  <metadata
     id="metadata2032">
    <rdf:RDF>
      <cc:Work
         rdf:about="">
        <dc:format>image/svg+xml</dc:format>
        <dc:type
           rdf:resource="http://purl.org/dc/dcmitype/StillImage" />
        <dc:title></dc:title>
      </cc:Work>
    </rdf:RDF>
  </metadata>
  <g
     inkscape:label="Taso 1"
     inkscape:groupmode="layer"
     id="layer1"
     transform="translate(63.363998,6.8342215)">
    <g
       id="g8470"
       transform="translate(-151.84056,-95.027005)">
      <g
         id="g835">
        <g
           transform="translate(-22.851544,-1.8708867)"
           id="g4573">
          <path
             d="m 132.86706,100.74018 a 10.77,10.5295 0 0 1 -10.88173,10.38191 10.77,10.5295 0 0 1 -10.65696,-10.60243 10.77,10.5295 0 0 1 10.80733,-10.455926 10.77,10.5295 0 0 1 10.73241,10.529436"
             sodipodi:open="true"
             sodipodi:end="0"
             sodipodi:start="0.013962634"
             sodipodi:ry="10.5295"
             sodipodi:rx="10.77"
             sodipodi:cy="100.59317"
             sodipodi:cx="122.09811"
             sodipodi:type="arc"
             id="path3921-2-4"
             style="fill:#000000;fill-opacity:1;fill-rule:evenodd;stroke-width:0.64360219" />
          <g
             transform="matrix(0.86510951,0,0,0.88761685,-25.000047,-3.1270163)"
             id="g4561">
            <path
               d="m 181.87054,117.01806 a 11.888289,11.296447 0 0 1 -12.01162,11.1381 11.888289,11.296447 0 0 1 -11.76351,-11.37469 11.888289,11.296447 0 0 1 11.9295,-11.21751 11.888289,11.296447 0 0 1 11.84679,11.29638"
               sodipodi:open="true"
               sodipodi:end="0"
               sodipodi:start="0.013962634"
               sodipodi:ry="11.296447"
               sodipodi:rx="11.888289"
               sodipodi:cy="116.86034"
               sodipodi:cx="169.98341"
               sodipodi:type="arc"
               id="path4545"
               style="fill:#b7903c;fill-opacity:1;fill-rule:evenodd;stroke-width:0.70038438" />
            <g
               style="fill:#8d2c24;fill-opacity:1"
               transform="matrix(1.2379497,0,0,1.230703,93.43576,-138.24553)"
               id="g4559">
              <rect
                 style="fill:#8d2c24;fill-opacity:1;fill-rule:evenodd;stroke-width:0.26458332"
                 id="rect4547"
                 width="3.9785492"
                 height="8.3848991"
                 x="59.905998"
                 y="205.42108" />
              <rect
                 style="fill:#8d2c24;fill-opacity:1;fill-rule:evenodd;stroke-width:0.18439659"
                 id="rect4549"
                 width="6.5453548"
                 height="0.72726166"
                 x="58.579819"
                 y="213.0787"
                 ry="0.048571452" />
              <rect
                 style="fill:#8d2c24;fill-opacity:1;fill-rule:evenodd;stroke-width:0.16909295"
                 id="rect4551"
                 width="5.5040002"
                 height="0.82700002"
                 x="59.092312"
                 y="212.31831"
                 ry="0.048571452"
                 rx="2.7755579e-017" />
              <rect
                 style="fill:#8d2c24;fill-opacity:1;fill-rule:evenodd;stroke-width:0.19078481"
                 id="rect4553"
                 width="6.5453548"
                 height="0.77852476"
                 x="58.56831"
                 y="-205.19231"
                 ry="0.051995147"
                 transform="scale(1,-1)" />
              <rect
                 style="fill:#8d2c24;fill-opacity:1;fill-rule:evenodd;stroke-width:0.17495099"
                 id="rect4555"
                 width="5.5040002"
                 height="0.88529342"
                 x="59.080803"
                 y="-206.0063"
                 ry="0.051995147"
                 rx="2.7755579e-017"
                 transform="scale(1,-1)" />
              <rect
                 ry="0.036613408"
                 rx="4.3065326e-017"
                 y="200.02927"
                 x="60.061958"
                 height="2.9560509"
                 width="3.7020578"
                 id="rect4557"
                 style="fill:#8d2c24;fill-opacity:1;fill-rule:evenodd;stroke-width:0.2023326" />
            </g>
          </g>
        </g>
      </g>
    </g>
  </g>
</svg>
